<?xml version="1.0" encoding="UTF-8" standalone="no"?>
<!-- Created with Inkscape (http://www.inkscape.org/) -->

<svg
   xmlns:dc="http://purl.org/dc/elements/1.1/"
   xmlns:cc="http://creativecommons.org/ns#"
   xmlns:rdf="http://www.w3.org/1999/02/22-rdf-syntax-ns#"
   xmlns:svg="http://www.w3.org/2000/svg"
   xmlns="http://www.w3.org/2000/svg"
   xmlns:sodipodi="http://sodipodi.sourceforge.net/DTD/sodipodi-0.dtd"
   xmlns:inkscape="http://www.inkscape.org/namespaces/inkscape"
   width="250"
   height="250"
   viewBox="0 0 66.145833 66.145833"
   version="1.1"
   id="svg8"
   sodipodi:docname="scan-small.svg"
   inkscape:version="0.92.3 (3ce5693, 2018-03-11)">
  <defs
     id="defs2" />
  <sodipodi:namedview
     id="base"
     pagecolor="#ffffff"
     bordercolor="#666666"
     borderopacity="1.0"
     inkscape:pageopacity="0.0"
     inkscape:pageshadow="2"
     inkscape:zoom="1.4142136"
     inkscape:cx="137.61097"
     inkscape:cy="169.45361"
     inkscape:document-units="mm"
     inkscape:current-layer="layer1"
     showgrid="false"
     units="px"
     inkscape:window-width="1319"
     inkscape:window-height="717"
     inkscape:window-x="47"
     inkscape:window-y="27"
     inkscape:window-maximized="1" />
  <metadata
     id="metadata5">
    <rdf:RDF>
      <cc:Work
         rdf:about="">
        <dc:format>image/svg+xml</dc:format>
        <dc:type
           rdf:resource="http://purl.org/dc/dcmitype/StillImage" />
        <dc:title />
      </cc:Work>
    </rdf:RDF>
  </metadata>
  <g
     inkscape:label="Capa 1"
     inkscape:groupmode="layer"
     id="layer1"
     transform="translate(0,-230.85417)">
    <g
       id="g1723"
       transform="matrix(1.0916154,0,0,1.0916154,-4.3447172,-24.359069)"
       style="fill:#4b4b4b;fill-opacity:0.36862746">
      <path
         inkscape:connector-curvature="0"
         id="path1196-2"
         d="m 17.88605,281.41282 c -0.187176,-0.0372 -0.324936,-0.1078 -0.473057,-0.24231 -0.195655,-0.17771 -0.836178,-0.85359 -1.173666,-1.23845 -0.317143,-0.36165 -0.522838,-0.61025 -0.926693,-1.12001 -0.107585,-0.13582 -0.218398,-0.27484 -0.246245,-0.309 -0.1289,-0.15806 -0.195335,-0.34999 -0.196306,-0.56715 -7.6e-4,-0.1682 0.02093,-0.26459 0.09219,-0.41002 0.09361,-0.19102 0.23253,-0.33213 0.416208,-0.42275 0.153447,-0.0757 0.266075,-0.0983 0.451085,-0.0908 0.169707,0.007 0.246931,0.0257 0.37625,0.0913 0.164911,0.0837 0.31968,0.23434 0.400787,0.39025 0.1217,0.2339 0.91292,1.17631 1.578382,1.87997 0.132911,0.14057 0.241368,0.26006 0.241031,0.26561 -3.4e-4,0.006 0.03846,0.0331 0.08624,0.0611 0.451334,0.26486 0.596424,0.84726 0.321231,1.28943 -0.06074,0.0976 -0.167932,0.21141 -0.256505,0.27236 -0.07648,0.0526 -0.210754,0.11355 -0.302584,0.13726 -0.105256,0.0272 -0.286685,0.0333 -0.388342,0.0129 z"
         style="opacity:1;fill:#4b4b4b;fill-opacity:0.36862746;stroke:none;stroke-width:0.01188425;stroke-linecap:round;stroke-miterlimit:4;stroke-dasharray:none;stroke-opacity:1" />
      <path
         inkscape:connector-curvature="0"
         id="path1200-0"
         d="m 13.509077,275.65425 c -0.278184,-0.0888 -0.469718,-0.31981 -0.723614,-0.87261 -0.685181,-1.49183 -0.922041,-2.0702 -1.259061,-3.07434 -0.572038,-1.70437 -0.914648,-3.31 -1.133258,-5.31096 -0.08982,-0.82208 -0.126184,-2.8514 -0.06737,-3.75913 0.07757,-1.19734 0.291051,-2.80497 0.401108,-3.0207 0.222587,-0.43631 0.788114,-0.63144 1.208487,-0.41697 0.341908,0.17442 0.510992,0.44398 0.510992,0.81459 0,0.12462 -0.01634,0.26909 -0.03631,0.32113 -0.04878,0.12721 -0.119831,0.57451 -0.198615,1.25053 -0.185252,1.5897 -0.18449,3.31267 0.0022,4.96181 0.311009,2.74743 1.186602,5.61387 2.389156,7.8214 0.386678,0.70982 -0.31469,1.53401 -1.093722,1.28525 z"
         style="opacity:1;fill:#4b4b4b;fill-opacity:0.36862746;stroke:none;stroke-width:0.03361373;stroke-linecap:round;stroke-miterlimit:4;stroke-dasharray:none;stroke-opacity:1" />
      <path
         inkscape:connector-curvature="0"
         id="path1202-2"
         d="m 12.358483,256.73049 c -0.349361,-0.12907 -0.595837,-0.4821 -0.597122,-0.85526 -6.47e-4,-0.19246 0.01956,-0.26252 0.169823,-0.58823 0.09382,-0.20337 0.226948,-0.50589 0.295849,-0.67227 0.227806,-0.55013 1.200741,-2.48492 1.307844,-2.60078 0.342147,-0.37017 0.996975,-0.36356 1.327946,0.0129 0.06238,0.071 0.141348,0.19068 0.175489,0.26584 0.113579,0.25004 0.06743,0.65146 -0.102281,0.8898 -0.218567,0.30694 -0.932992,1.80268 -1.301695,2.72525 -0.195366,0.48884 -0.31264,0.65076 -0.566115,0.78163 -0.174791,0.0903 -0.521732,0.1101 -0.709742,0.0407 z"
         style="opacity:1;fill:#4b4b4b;fill-opacity:0.36862746;stroke:none;stroke-width:0.03361373;stroke-linecap:round;stroke-miterlimit:4;stroke-dasharray:none;stroke-opacity:1" />
      <path
         inkscape:connector-curvature="0"
         id="path1204-3"
         d="m 15.635718,250.9569 c -0.414753,-0.15525 -0.63563,-0.46626 -0.633966,-0.89266 0.002,-0.49303 0.399971,-0.87803 0.906833,-0.87706 0.488517,9.2e-4 0.855672,0.33202 0.899087,0.81081 0.04753,0.5242 -0.321648,0.95773 -0.844083,0.99121 -0.123625,0.009 -0.254991,-0.004 -0.327871,-0.0323 z"
         style="opacity:1;fill:#4b4b4b;fill-opacity:0.36862746;stroke:none;stroke-width:0.03361373;stroke-linecap:round;stroke-miterlimit:4;stroke-dasharray:none;stroke-opacity:1" />
      <path
         inkscape:connector-curvature="0"
         id="path1206-7"
         d="m 17.551794,248.70275 c -0.374512,-0.13381 -0.614201,-0.48044 -0.611202,-0.88385 0.0026,-0.35092 0.06079,-0.42933 0.877206,-1.18227 0.865347,-0.79804 1.273461,-1.14182 2.0404,-1.71875 1.08616,-0.81706 2.4186,-1.64998 3.596669,-2.24833 0.335956,-0.17063 0.809481,-0.088 1.063537,0.18563 0.330867,0.35635 0.330867,0.91044 0,1.26679 -0.08772,0.0944 -0.312362,0.22428 -0.475297,0.27464 -0.23181,0.0716 -1.576167,0.8676 -2.285734,1.35329 -1.078489,0.73823 -2.477436,1.8981 -3.17223,2.6301 -0.319029,0.3361 -0.680258,0.44894 -1.033349,0.32275 z"
         style="opacity:1;fill:#4b4b4b;fill-opacity:0.36862746;stroke:none;stroke-width:0.03361373;stroke-linecap:round;stroke-miterlimit:4;stroke-dasharray:none;stroke-opacity:1" />
      <path
         inkscape:connector-curvature="0"
         id="path1208-5"
         d="m 26.577089,243.08332 c -0.639213,-0.23616 -0.789593,-1.09241 -0.27189,-1.5481 0.370516,-0.32615 0.959568,-0.2823 1.282944,0.0954 0.383008,0.44745 0.237814,1.13742 -0.29679,1.41041 -0.179716,0.0917 -0.524896,0.11212 -0.714264,0.0421 z"
         style="opacity:1;fill:#4b4b4b;fill-opacity:0.36862746;stroke:none;stroke-width:0.03361373;stroke-linecap:round;stroke-miterlimit:4;stroke-dasharray:none;stroke-opacity:1" />
      <path
         inkscape:connector-curvature="0"
         id="path1210-9"
         d="m 39.992822,242.6497 c -0.292411,-0.0975 -1.127807,-0.29109 -1.738269,-0.40304 -1.969492,-0.36119 -4.260196,-0.44644 -6.31222,-0.23491 -0.586914,0.0605 -1.738896,0.23538 -1.864073,0.28297 -0.160496,0.0611 -0.457857,0.0401 -0.640148,-0.0448 -0.190966,-0.0891 -0.393322,-0.29625 -0.472042,-0.48319 -0.07877,-0.18705 -0.07145,-0.50323 0.01624,-0.70173 0.146787,-0.33232 0.387453,-0.49986 0.79167,-0.5511 0.1381,-0.0175 0.429106,-0.0617 0.646693,-0.098 1.17583,-0.19667 2.545358,-0.30533 3.841015,-0.30476 2.168744,9.5e-4 4.111954,0.25727 6.413222,0.84593 0.203303,0.052 0.411554,0.22327 0.528704,0.43481 0.08647,0.15613 0.100039,0.21523 0.09936,0.43292 -7.6e-4,0.28411 -0.06758,0.44975 -0.257719,0.63988 -0.266074,0.26608 -0.621583,0.32861 -1.052431,0.18512 z"
         style="opacity:1;fill:#4b4b4b;fill-opacity:0.36862746;stroke:none;stroke-width:0.03361373;stroke-linecap:round;stroke-miterlimit:4;stroke-dasharray:none;stroke-opacity:1" />
      <path
         inkscape:connector-curvature="0"
         id="path1212-2"
         d="m 43.135487,243.74288 c -0.24121,-0.0733 -0.455833,-0.25397 -0.581806,-0.4896 -0.102051,-0.19088 -0.101361,-0.58297 0.0016,-0.77702 0.18074,-0.34144 0.450274,-0.5171 0.79345,-0.5171 0.281039,0 0.44153,0.0576 0.628343,0.22558 0.216735,0.19486 0.30642,0.38637 0.307987,0.65765 0.003,0.5225 -0.405121,0.93854 -0.911402,0.92901 -0.08453,-0.001 -0.191593,-0.0144 -0.237929,-0.0285 z"
         style="opacity:1;fill:#4b4b4b;fill-opacity:0.36862746;stroke:none;stroke-width:0.03361373;stroke-linecap:round;stroke-miterlimit:4;stroke-dasharray:none;stroke-opacity:1" />
      <path
         inkscape:connector-curvature="0"
         id="path1214-2"
         d="m 55.664297,256.67745 c -0.327807,-0.0486 -0.611389,-0.30122 -0.709723,-0.63235 -0.0639,-0.21519 -0.380021,-0.94904 -0.67169,-1.5593 -1.734621,-3.62934 -4.482311,-6.76278 -7.886648,-8.99385 -0.26807,-0.17568 -0.617605,-0.38348 -0.77674,-0.46179 -0.487355,-0.23977 -0.693412,-0.59426 -0.601844,-1.03535 0.103144,-0.49686 0.609839,-0.84022 1.071153,-0.72583 0.418374,0.10377 2.201803,1.2938 3.349471,2.2351 1.848341,1.51596 3.471725,3.30354 4.778566,5.26187 0.831179,1.24554 1.562024,2.59762 2.130592,3.94166 0.111336,0.2632 0.242698,0.56024 0.291905,0.6601 0.22483,0.45625 0.03976,1.0024 -0.42173,1.24454 -0.117646,0.0617 -0.373347,0.0919 -0.553312,0.0653 z"
         style="opacity:1;fill:#4b4b4b;fill-opacity:0.36862746;stroke:none;stroke-width:0.03361373;stroke-linecap:round;stroke-miterlimit:4;stroke-dasharray:none;stroke-opacity:1" />
      <path
         inkscape:connector-curvature="0"
         id="path1216-8"
         d="m 54.3963,275.75653 c -0.41023,-0.12735 -0.684875,-0.59871 -0.60299,-1.03483 0.01673,-0.0891 0.08321,-0.24797 0.147695,-0.35293 0.164494,-0.26774 0.6363,-1.29005 0.920481,-1.99451 1.333096,-3.30465 1.85047,-6.91667 1.499026,-10.46537 -0.0627,-0.63299 -0.20078,-1.58507 -0.247864,-1.70891 -0.05107,-0.13439 -0.04398,-0.42715 0.01437,-0.59243 0.07233,-0.205 0.221934,-0.37698 0.426517,-0.4903 0.153518,-0.0851 0.214776,-0.0992 0.431054,-0.0992 0.217191,0 0.277339,0.0144 0.434385,0.1009 0.177196,0.098 0.344944,0.2828 0.411972,0.45379 0.0589,0.15024 0.25722,1.57091 0.328476,2.35296 0.305294,3.35058 -0.104106,6.73412 -1.203876,9.94966 -0.321373,0.93966 -0.569117,1.54142 -1.120914,2.72271 -0.41396,0.88621 -0.515968,1.02757 -0.825026,1.14319 -0.206291,0.0772 -0.398436,0.0819 -0.613276,0.0152 z"
         style="opacity:1;fill:#4b4b4b;fill-opacity:0.36862746;stroke:none;stroke-width:0.03361373;stroke-linecap:round;stroke-miterlimit:4;stroke-dasharray:none;stroke-opacity:1" />
      <path
         inkscape:connector-curvature="0"
         id="path1218-9"
         d="m 49.501728,282.01575 c -0.663472,-0.25024 -0.806722,-1.11868 -0.257084,-1.55855 0.429864,-0.34402 1.644536,-1.60635 1.999977,-2.07843 0.280297,-0.37229 0.539338,-0.51026 0.897086,-0.47782 0.452492,0.041 0.793017,0.38113 0.833986,0.83294 0.0256,0.2824 -0.05702,0.49587 -0.289979,0.74916 -0.104969,0.11412 -0.359194,0.39659 -0.564937,0.62768 -0.616205,0.69212 -1.752537,1.80099 -1.926191,1.87963 -0.171853,0.0778 -0.520041,0.0905 -0.692858,0.0254 z"
         style="opacity:1;fill:#4b4b4b;fill-opacity:0.36862746;stroke:none;stroke-width:0.03361373;stroke-linecap:round;stroke-miterlimit:4;stroke-dasharray:none;stroke-opacity:1" />
      <path
         inkscape:connector-curvature="0"
         id="path1222-7"
         d="m 33.152427,288.05459 c -1.00222,-0.055 -2.131805,-0.18017 -2.988281,-0.33102 -0.588554,-0.10363 -2.030453,-0.41315 -2.205458,-0.47339 -0.190098,-0.0654 -0.356078,-0.21303 -0.465406,-0.41391 -0.189954,-0.349 -0.142139,-0.74746 0.124387,-1.03661 0.284287,-0.30841 0.573677,-0.37102 1.069974,-0.23145 1.01126,0.28435 2.336113,0.5129 3.723178,0.64229 0.749859,0.07 2.892689,0.0704 3.682807,7.6e-4 1.905465,-0.16781 3.625894,-0.52831 5.372752,-1.12584 1.375249,-0.47041 2.4419,-0.95359 3.907179,-1.76988 0.379045,-0.21118 0.549167,-0.28734 0.675063,-0.30225 0.557275,-0.066 1.074505,0.44637 1.008991,0.9995 -0.02225,0.18796 -0.14834,0.45102 -0.270992,0.56544 -0.04778,0.0446 -0.227006,0.1512 -0.398291,0.23701 -0.171282,0.0858 -0.569205,0.29519 -0.884272,0.46534 -3.388277,1.82969 -7.420174,2.82042 -11.355351,2.79026 -0.446272,-0.003 -0.8946,-0.0115 -0.99628,-0.0164 z"
         style="opacity:1;fill:#4b4b4b;fill-opacity:0.36862746;stroke:none;stroke-width:0.03361373;stroke-linecap:round;stroke-miterlimit:4;stroke-dasharray:none;stroke-opacity:1" />
      <path
         inkscape:connector-curvature="0"
         id="path1224-3"
         d="m 20.227949,283.47577 c -0.41159,-0.10722 -0.722695,-0.4922 -0.722695,-0.89442 0,-0.37756 0.293743,-0.77026 0.654633,-0.87517 0.250083,-0.0727 0.485979,-0.0443 0.714438,0.0862 0.50067,0.28594 0.610672,0.95191 0.231354,1.40064 -0.176459,0.20875 -0.616902,0.35061 -0.87773,0.2827 z"
         style="opacity:1;fill:#4b4b4b;fill-opacity:0.36862746;stroke:none;stroke-width:0.03361373;stroke-linecap:round;stroke-miterlimit:4;stroke-dasharray:none;stroke-opacity:1" />
      <path
         inkscape:connector-curvature="0"
         id="path1226-6"
         d="m 22.703491,285.04722 c -0.45557,-0.0827 -0.782631,-0.52305 -0.734543,-0.98898 0.02195,-0.21268 0.09242,-0.35959 0.254318,-0.53016 0.440932,-0.46455 1.185828,-0.34775 1.468625,0.23027 0.32755,0.66949 -0.250201,1.42287 -0.9884,1.28887 z"
         style="opacity:1;fill:#4b4b4b;fill-opacity:0.36862746;stroke:none;stroke-width:0.03361373;stroke-linecap:round;stroke-miterlimit:4;stroke-dasharray:none;stroke-opacity:1" />
      <path
         inkscape:connector-curvature="0"
         id="path1228-1"
         d="m 25.148404,286.28492 c -0.29587,-0.11082 -0.501668,-0.31486 -0.595759,-0.59092 -0.06067,-0.17798 -0.04657,-0.47065 0.03092,-0.64206 0.325408,-0.7197 1.349997,-0.7197 1.675405,0 0.129749,0.28695 0.07582,0.67903 -0.128915,0.93754 -0.211577,0.26714 -0.68035,0.40823 -0.981648,0.29544 z"
         style="opacity:1;fill:#4b4b4b;fill-opacity:0.36862746;stroke:none;stroke-width:0.03361373;stroke-linecap:round;stroke-miterlimit:4;stroke-dasharray:none;stroke-opacity:1" />
    </g>
  </g>
</svg>
