<?xml version="1.0" encoding="UTF-8" standalone="no"?>
<!-- Created with Inkscape (http://www.inkscape.org/) -->

<svg
   xmlns:dc="http://purl.org/dc/elements/1.1/"
   xmlns:cc="http://creativecommons.org/ns#"
   xmlns:rdf="http://www.w3.org/1999/02/22-rdf-syntax-ns#"
   xmlns:svg="http://www.w3.org/2000/svg"
   xmlns="http://www.w3.org/2000/svg"
   xmlns:sodipodi="http://sodipodi.sourceforge.net/DTD/sodipodi-0.dtd"
   xmlns:inkscape="http://www.inkscape.org/namespaces/inkscape"
   version="1.1"
   id="svg131"
   width="250"
   height="250"
   viewBox="0 0 250 250"
   sodipodi:docname="calendario.svg"
   inkscape:version="0.92.3 (3ce5693, 2018-03-11)"
   inkscape:export-filename="/home/raeghar/Proyectos/gymgo/src/assets/imgs/calendario.png"
   inkscape:export-xdpi="96"
   inkscape:export-ydpi="96">
  <metadata
     id="metadata137">
    <rdf:RDF>
      <cc:Work
         rdf:about="">
        <dc:format>image/svg+xml</dc:format>
        <dc:type
           rdf:resource="http://purl.org/dc/dcmitype/StillImage" />
        <dc:title />
      </cc:Work>
    </rdf:RDF>
  </metadata>
  <defs
     id="defs135" />
  <sodipodi:namedview
     pagecolor="#ffffff"
     bordercolor="#666666"
     borderopacity="1"
     objecttolerance="10"
     gridtolerance="10"
     guidetolerance="10"
     inkscape:pageopacity="0"
     inkscape:pageshadow="2"
     inkscape:window-width="1319"
     inkscape:window-height="717"
     id="namedview133"
     showgrid="false"
     showguides="false"
     inkscape:zoom="2"
     inkscape:cx="69.97003"
     inkscape:cy="74.084788"
     inkscape:window-x="47"
     inkscape:window-y="27"
     inkscape:window-maximized="1"
     inkscape:current-layer="svg131" />
  <circle
     style="fill:#e6e6e6;fill-opacity:1;stroke:none;stroke-width:1.11177218;stroke-linecap:round;stroke-miterlimit:4;stroke-dasharray:none;stroke-opacity:1"
     id="path952-3"
     cx="125"
     cy="125"
     r="122.5" />
  <circle
     style="fill:#0090ff;fill-opacity:1;stroke:none;stroke-width:0.99832606;stroke-linecap:round;stroke-miterlimit:4;stroke-dasharray:none;stroke-opacity:1"
     id="path952"
     cx="125"
     cy="125"
     r="110" />
  <path
     transform="matrix(0.69825801,-0.71584618,0.7125829,0.70158792,0,0)"
     style="fill:#1d5cff;fill-opacity:1;stroke:none;stroke-width:1.0656997;stroke-linecap:round;stroke-miterlimit:4;stroke-dasharray:none;stroke-opacity:1"
     d="m -84.286268,184.23752 c 38.92867,-11.851 103.906549,-13.79281 158.416474,-5.42074 l -1.713342,79.86285 c -30.35038,29.74026 -101.956716,46.0938 -150.347116,-3.28004 z"
     id="rect1401"
     inkscape:connector-curvature="0"
     sodipodi:nodetypes="ccccc" />
  <rect
     style="fill:#908f8f;fill-opacity:1;stroke:none;stroke-width:0.81728846;stroke-linecap:round;stroke-miterlimit:4;stroke-dasharray:none;stroke-opacity:1"
     id="rect1104-9"
     width="117.01311"
     height="118.78088"
     x="66.494682"
     y="74.040451"
     ry="15.138741" />
  <rect
     style="fill:#f0f0f0;fill-opacity:1;stroke:none;stroke-width:0.81118399;stroke-linecap:round;stroke-miterlimit:4;stroke-dasharray:none;stroke-opacity:1"
     id="rect1104"
     width="117.01311"
     height="117.01311"
     x="66.494682"
     y="68.15583"
     ry="14.913437" />
  <path
     style="fill:#ff2632;fill-opacity:1;stroke:none;stroke-width:0.16004042;stroke-linecap:round;stroke-miterlimit:4;stroke-dasharray:none;stroke-opacity:1"
     d="m 70.609257,72.61414 c 1.73305,-1.633086 5.174173,-4.463776 10.864845,-4.463776 l 87.565048,0.0036 c 5.31859,0 9.34212,2.849346 11.13604,5.427867 1.45799,2.095652 3.31196,4.217022 3.31196,9.431521 l 0.0196,26.656418 -117.013797,9.1e-4 -8e-4,-26.926305 c 0,-5.027662 2.354836,-8.470003 4.117045,-10.130567 z"
     id="path1123"
     inkscape:connector-curvature="0"
     sodipodi:nodetypes="cccsccccsc" />
  <g
     id="g1279"
     transform="matrix(0.90532538,0,0,0.90532538,12.172744,14.777041)"
     style="fill:#999999;fill-opacity:1">
    <rect
       ry="0"
       y="118"
       x="117.62756"
       height="14"
       width="14"
       id="rect1125-3-6"
       style="fill:#999999;fill-opacity:1;stroke:none;stroke-width:1.01533282;stroke-linecap:round;stroke-miterlimit:4;stroke-dasharray:none;stroke-opacity:1" />
    <rect
       ry="0"
       y="118"
       x="95.442093"
       height="14"
       width="14"
       id="rect1125-3-6-2"
       style="fill:#999999;fill-opacity:1;stroke:none;stroke-width:1.01533282;stroke-linecap:round;stroke-miterlimit:4;stroke-dasharray:none;stroke-opacity:1" />
    <rect
       ry="0"
       y="118"
       x="139.81303"
       height="14"
       width="14"
       id="rect1125-3-6-2-6"
       style="fill:#999999;fill-opacity:1;stroke:none;stroke-width:1.01533282;stroke-linecap:round;stroke-miterlimit:4;stroke-dasharray:none;stroke-opacity:1" />
    <rect
       ry="0"
       y="118"
       x="161.9985"
       height="14"
       width="14"
       id="rect1125-3-6-2-6-1"
       style="fill:#999999;fill-opacity:1;stroke:none;stroke-width:1.01533282;stroke-linecap:round;stroke-miterlimit:4;stroke-dasharray:none;stroke-opacity:1" />
    <rect
       ry="0"
       y="118"
       x="73.256622"
       height="14"
       width="14"
       id="rect1125-3-6-2-6-1-8"
       style="fill:#999999;fill-opacity:1;stroke:none;stroke-width:1.01533282;stroke-linecap:round;stroke-miterlimit:4;stroke-dasharray:none;stroke-opacity:1" />
  </g>
  <rect
     style="fill:#999999;fill-opacity:1;stroke:none;stroke-width:0.91920656;stroke-linecap:round;stroke-miterlimit:4;stroke-dasharray:none;stroke-opacity:1"
     id="rect1125-3-6-7"
     width="12.674556"
     height="12.674556"
     x="118.66397"
     y="140.7388"
     ry="0" />
  <rect
     style="fill:#999999;fill-opacity:1;stroke:none;stroke-width:0.91920656;stroke-linecap:round;stroke-miterlimit:4;stroke-dasharray:none;stroke-opacity:1"
     id="rect1125-3-6-2-9"
     width="12.674556"
     height="12.674556"
     x="98.578896"
     y="140.7388"
     ry="0" />
  <rect
     style="fill:#ff2632;fill-opacity:1;stroke:none;stroke-width:0.91920656;stroke-linecap:round;stroke-miterlimit:4;stroke-dasharray:none;stroke-opacity:1"
     id="rect1125-3-6-2-6-2"
     width="12.674556"
     height="12.674556"
     x="138.74904"
     y="140.7388"
     ry="0" />
  <rect
     style="fill:#999999;fill-opacity:1;stroke:none;stroke-width:0.91920656;stroke-linecap:round;stroke-miterlimit:4;stroke-dasharray:none;stroke-opacity:1"
     id="rect1125-3-6-2-6-1-0"
     width="12.674556"
     height="12.674556"
     x="158.83411"
     y="140.7388"
     ry="0" />
  <rect
     style="fill:#999999;fill-opacity:1;stroke:none;stroke-width:0.91920656;stroke-linecap:round;stroke-miterlimit:4;stroke-dasharray:none;stroke-opacity:1"
     id="rect1125-3-6-2-6-1-8-2"
     width="12.674556"
     height="12.674556"
     x="78.49382"
     y="140.7388"
     ry="0" />
  <g
     id="g1286-3"
     transform="matrix(0.90532538,0,0,0.90532538,13.293022,32.381487)"
     style="fill:#999999;fill-opacity:1">
    <rect
       ry="0"
       y="140.82307"
       x="116.39014"
       height="14"
       width="14"
       id="rect1125-3-6-7-7"
       style="fill:#999999;fill-opacity:1;stroke:none;stroke-width:1.01533282;stroke-linecap:round;stroke-miterlimit:4;stroke-dasharray:none;stroke-opacity:1" />
    <rect
       ry="0"
       y="140.82307"
       x="94.204659"
       height="14"
       width="14"
       id="rect1125-3-6-2-9-5"
       style="fill:#999999;fill-opacity:1;stroke:none;stroke-width:1.01533282;stroke-linecap:round;stroke-miterlimit:4;stroke-dasharray:none;stroke-opacity:1" />
    <rect
       ry="0"
       y="140.82307"
       x="138.57561"
       height="14"
       width="14"
       id="rect1125-3-6-2-6-2-9"
       style="fill:#999999;fill-opacity:1;stroke:none;stroke-width:1.01533282;stroke-linecap:round;stroke-miterlimit:4;stroke-dasharray:none;stroke-opacity:1" />
    <rect
       ry="0"
       y="140.82307"
       x="160.76108"
       height="14"
       width="14"
       id="rect1125-3-6-2-6-1-0-2"
       style="fill:#999999;fill-opacity:1;stroke:none;stroke-width:1.01533282;stroke-linecap:round;stroke-miterlimit:4;stroke-dasharray:none;stroke-opacity:1" />
    <rect
       ry="0"
       y="140.82307"
       x="72.019188"
       height="14"
       width="14"
       id="rect1125-3-6-2-6-1-8-2-2"
       style="fill:#999999;fill-opacity:1;stroke:none;stroke-width:1.01533282;stroke-linecap:round;stroke-miterlimit:4;stroke-dasharray:none;stroke-opacity:1" />
  </g>
  <circle
     style="fill:#d9091e;fill-opacity:1;stroke:none;stroke-width:1.37475336;stroke-linecap:round;stroke-miterlimit:4;stroke-dasharray:none;stroke-opacity:1"
     id="path1323"
     cx="86.411743"
     cy="86.375412"
     r="9.2795849" />
  <rect
     style="fill:#c8c8c8;fill-opacity:1;stroke:none;stroke-width:1.29845369;stroke-linecap:round;stroke-miterlimit:4;stroke-dasharray:none;stroke-opacity:1"
     id="rect1344"
     width="13.127218"
     height="32.365383"
     x="79.848137"
     y="57.178665"
     ry="6.5636091" />
  <circle
     style="fill:#d9091e;fill-opacity:1;stroke:none;stroke-width:1.37475336;stroke-linecap:round;stroke-miterlimit:4;stroke-dasharray:none;stroke-opacity:1"
     id="path1323-9"
     cx="163.25124"
     cy="86.375412"
     r="9.2795849" />
  <rect
     style="fill:#c8c8c8;fill-opacity:1;stroke:none;stroke-width:1.29845369;stroke-linecap:round;stroke-miterlimit:4;stroke-dasharray:none;stroke-opacity:1"
     id="rect1344-3"
     width="13.127218"
     height="32.365383"
     x="156.68762"
     y="57.178665"
     ry="6.5636091" />
  <path
     style="fill:#afafaf;fill-opacity:1;stroke:none;stroke-width:0.02681231;stroke-linecap:round;stroke-miterlimit:4;stroke-dasharray:none;stroke-opacity:1"
     d="m 85.661829,89.492788 c -2.925277,-0.31996 -5.228968,-2.286587 -5.711875,-4.876143 -0.09058,-0.485744 -0.101514,-0.955943 -0.101763,-4.376964 l -2.48e-4,-3.42407 h 6.563609 6.563609 l -2.55e-4,3.42407 c -2.42e-4,3.421021 -0.01117,3.89122 -0.101757,4.376964 -0.44983,2.412191 -2.533252,4.341001 -5.188484,4.803448 -0.544349,0.09481 -1.50504,0.12933 -2.022836,0.0727 z"
     id="path1397"
     inkscape:connector-curvature="0" />
  <path
     style="fill:#afafaf;fill-opacity:1;stroke:none;stroke-width:0.02681231;stroke-linecap:round;stroke-miterlimit:4;stroke-dasharray:none;stroke-opacity:1"
     d="m 162.50146,89.492788 c -2.92528,-0.31996 -5.22897,-2.286587 -5.71188,-4.876143 -0.0906,-0.485744 -0.10152,-0.955943 -0.10176,-4.376964 l -2.5e-4,-3.42407 h 6.5636 6.56361 l -2.5e-4,3.42407 c -2.4e-4,3.421021 -0.0111,3.89122 -0.10176,4.376964 -0.44983,2.412191 -2.53324,4.341001 -5.18848,4.803448 -0.54435,0.09481 -1.50504,0.12933 -2.02283,0.0727 z"
     id="path1399"
     inkscape:connector-curvature="0" />
</svg>
