<?xml version="1.0" encoding="UTF-8" standalone="no"?>
<!-- Created with Inkscape (http://www.inkscape.org/) -->

<svg
   xmlns:dc="http://purl.org/dc/elements/1.1/"
   xmlns:cc="http://creativecommons.org/ns#"
   xmlns:rdf="http://www.w3.org/1999/02/22-rdf-syntax-ns#"
   xmlns:svg="http://www.w3.org/2000/svg"
   xmlns="http://www.w3.org/2000/svg"
   xmlns:sodipodi="http://sodipodi.sourceforge.net/DTD/sodipodi-0.dtd"
   xmlns:inkscape="http://www.inkscape.org/namespaces/inkscape"
   width="250"
   height="250"
   viewBox="0 0 66.145833 66.145833"
   version="1.1"
   id="svg8"
   inkscape:version="0.92.3 (3ce5693, 2018-03-11)"
   sodipodi:docname="profile-icon.svg"
   inkscape:export-filename="/home/raeghar/Proyectos/gymgo/src/assets/imgs/profile-icon.png"
   inkscape:export-xdpi="94.824493"
   inkscape:export-ydpi="94.824493">
  <defs
     id="defs2">
    <clipPath
       clipPathUnits="userSpaceOnUse"
       id="clipPath1136">
      <g
         id="g1144">
        <rect
           transform="rotate(-45.655781)"
           y="185.27229"
           x="-226.81439"
           height="16.410889"
           width="115.58973"
           id="rect1138"
           style="opacity:1;fill:#fcbb31;fill-opacity:1;stroke:none;stroke-width:0.89189607;stroke-linecap:round;stroke-miterlimit:4;stroke-dasharray:none;stroke-opacity:1" />
        <rect
           transform="rotate(-45.655781)"
           y="205.97289"
           x="-210.50682"
           height="11.065492"
           width="85.724998"
           id="rect1140"
           style="opacity:1;fill:#fcbb31;fill-opacity:1;stroke:none;stroke-width:0.63070703;stroke-linecap:round;stroke-miterlimit:4;stroke-dasharray:none;stroke-opacity:1" />
        <rect
           transform="rotate(-45.655781)"
           y="224.04019"
           x="-212.65302"
           height="25.641218"
           width="85.724998"
           id="rect1142"
           style="opacity:1;fill:#fcbb31;fill-opacity:1;stroke:none;stroke-width:0.96008933;stroke-linecap:round;stroke-miterlimit:4;stroke-dasharray:none;stroke-opacity:1" />
      </g>
    </clipPath>
    <clipPath
       clipPathUnits="userSpaceOnUse"
       id="clipPath1146">
      <g
         id="g1154">
        <rect
           transform="rotate(-45.655781)"
           y="185.27229"
           x="-226.81439"
           height="16.410889"
           width="115.58973"
           id="rect1148"
           style="opacity:1;fill:#fcbb31;fill-opacity:1;stroke:none;stroke-width:0.89189607;stroke-linecap:round;stroke-miterlimit:4;stroke-dasharray:none;stroke-opacity:1" />
        <rect
           transform="rotate(-45.655781)"
           y="205.97289"
           x="-210.50682"
           height="11.065492"
           width="85.724998"
           id="rect1150"
           style="opacity:1;fill:#fcbb31;fill-opacity:1;stroke:none;stroke-width:0.63070703;stroke-linecap:round;stroke-miterlimit:4;stroke-dasharray:none;stroke-opacity:1" />
        <rect
           transform="rotate(-45.655781)"
           y="224.04019"
           x="-212.65302"
           height="25.641218"
           width="85.724998"
           id="rect1152"
           style="opacity:1;fill:#fcbb31;fill-opacity:1;stroke:none;stroke-width:0.96008933;stroke-linecap:round;stroke-miterlimit:4;stroke-dasharray:none;stroke-opacity:1" />
      </g>
    </clipPath>
    <clipPath
       clipPathUnits="userSpaceOnUse"
       id="clipPath1156">
      <g
         id="g1164">
        <rect
           transform="rotate(-45.655781)"
           y="185.27229"
           x="-226.81439"
           height="16.410889"
           width="115.58973"
           id="rect1158"
           style="opacity:1;fill:#fcbb31;fill-opacity:1;stroke:none;stroke-width:0.89189607;stroke-linecap:round;stroke-miterlimit:4;stroke-dasharray:none;stroke-opacity:1" />
        <rect
           transform="rotate(-45.655781)"
           y="205.97289"
           x="-210.50682"
           height="11.065492"
           width="85.724998"
           id="rect1160"
           style="opacity:1;fill:#fcbb31;fill-opacity:1;stroke:none;stroke-width:0.63070703;stroke-linecap:round;stroke-miterlimit:4;stroke-dasharray:none;stroke-opacity:1" />
        <rect
           transform="rotate(-45.655781)"
           y="224.04019"
           x="-212.65302"
           height="25.641218"
           width="85.724998"
           id="rect1162"
           style="opacity:1;fill:#fcbb31;fill-opacity:1;stroke:none;stroke-width:0.96008933;stroke-linecap:round;stroke-miterlimit:4;stroke-dasharray:none;stroke-opacity:1" />
      </g>
    </clipPath>
    <clipPath
       clipPathUnits="userSpaceOnUse"
       id="clipPath1166">
      <g
         id="g1174">
        <rect
           transform="rotate(-45.655781)"
           y="185.27229"
           x="-226.81439"
           height="16.410889"
           width="115.58973"
           id="rect1168"
           style="opacity:1;fill:#fcbb31;fill-opacity:1;stroke:none;stroke-width:0.89189607;stroke-linecap:round;stroke-miterlimit:4;stroke-dasharray:none;stroke-opacity:1" />
        <rect
           transform="rotate(-45.655781)"
           y="205.97289"
           x="-210.50682"
           height="11.065492"
           width="85.724998"
           id="rect1170"
           style="opacity:1;fill:#fcbb31;fill-opacity:1;stroke:none;stroke-width:0.63070703;stroke-linecap:round;stroke-miterlimit:4;stroke-dasharray:none;stroke-opacity:1" />
        <rect
           transform="rotate(-45.655781)"
           y="224.04019"
           x="-212.65302"
           height="25.641218"
           width="85.724998"
           id="rect1172"
           style="opacity:1;fill:#fcbb31;fill-opacity:1;stroke:none;stroke-width:0.96008933;stroke-linecap:round;stroke-miterlimit:4;stroke-dasharray:none;stroke-opacity:1" />
      </g>
    </clipPath>
    <clipPath
       clipPathUnits="userSpaceOnUse"
       id="clipPath1176">
      <g
         id="g1184">
        <rect
           transform="rotate(-45.655781)"
           y="185.27229"
           x="-226.81439"
           height="16.410889"
           width="115.58973"
           id="rect1178"
           style="opacity:1;fill:#fcbb31;fill-opacity:1;stroke:none;stroke-width:0.89189607;stroke-linecap:round;stroke-miterlimit:4;stroke-dasharray:none;stroke-opacity:1" />
        <rect
           transform="rotate(-45.655781)"
           y="205.97289"
           x="-210.50682"
           height="11.065492"
           width="85.724998"
           id="rect1180"
           style="opacity:1;fill:#fcbb31;fill-opacity:1;stroke:none;stroke-width:0.63070703;stroke-linecap:round;stroke-miterlimit:4;stroke-dasharray:none;stroke-opacity:1" />
        <rect
           transform="rotate(-45.655781)"
           y="224.04019"
           x="-212.65302"
           height="25.641218"
           width="85.724998"
           id="rect1182"
           style="opacity:1;fill:#fcbb31;fill-opacity:1;stroke:none;stroke-width:0.96008933;stroke-linecap:round;stroke-miterlimit:4;stroke-dasharray:none;stroke-opacity:1" />
      </g>
    </clipPath>
    <clipPath
       clipPathUnits="userSpaceOnUse"
       id="clipPath1186">
      <g
         id="g1194">
        <rect
           transform="rotate(-45.655781)"
           y="185.27229"
           x="-226.81439"
           height="16.410889"
           width="115.58973"
           id="rect1188"
           style="opacity:1;fill:#fcbb31;fill-opacity:1;stroke:none;stroke-width:0.89189607;stroke-linecap:round;stroke-miterlimit:4;stroke-dasharray:none;stroke-opacity:1" />
        <rect
           transform="rotate(-45.655781)"
           y="205.97289"
           x="-210.50682"
           height="11.065492"
           width="85.724998"
           id="rect1190"
           style="opacity:1;fill:#fcbb31;fill-opacity:1;stroke:none;stroke-width:0.63070703;stroke-linecap:round;stroke-miterlimit:4;stroke-dasharray:none;stroke-opacity:1" />
        <rect
           transform="rotate(-45.655781)"
           y="224.04019"
           x="-212.65302"
           height="25.641218"
           width="85.724998"
           id="rect1192"
           style="opacity:1;fill:#fcbb31;fill-opacity:1;stroke:none;stroke-width:0.96008933;stroke-linecap:round;stroke-miterlimit:4;stroke-dasharray:none;stroke-opacity:1" />
      </g>
    </clipPath>
    <clipPath
       clipPathUnits="userSpaceOnUse"
       id="clipPath953">
      <rect
         style="opacity:1;fill:#a8a8a7;fill-opacity:1;stroke:none;stroke-width:0.59514278;stroke-linecap:round;stroke-miterlimit:4;stroke-dasharray:none;stroke-opacity:1"
         id="rect955"
         width="32.411457"
         height="80.822304"
         x="49.720467"
         y="225.53214" />
    </clipPath>
    <clipPath
       clipPathUnits="userSpaceOnUse"
       id="clipPath1006">
      <rect
         style="opacity:1;fill:#1e1b1c;fill-opacity:1;stroke:none;stroke-width:0.50971907;stroke-linecap:round;stroke-miterlimit:4;stroke-dasharray:none;stroke-opacity:1"
         id="rect1008"
         width="12.567708"
         height="26.789038"
         x="21.298952"
         y="250.63179" />
    </clipPath>
    <clipPath
       clipPathUnits="userSpaceOnUse"
       id="clipPath1006-6">
      <rect
         style="opacity:1;fill:#1e1b1c;fill-opacity:1;stroke:none;stroke-width:0.50971907;stroke-linecap:round;stroke-miterlimit:4;stroke-dasharray:none;stroke-opacity:1"
         id="rect1008-0"
         width="12.567708"
         height="26.789038"
         x="21.298952"
         y="250.63179" />
    </clipPath>
  </defs>
  <sodipodi:namedview
     id="base"
     pagecolor="#ffffff"
     bordercolor="#666666"
     borderopacity="1.0"
     inkscape:pageopacity="0.0"
     inkscape:pageshadow="2"
     inkscape:zoom="1.4142136"
     inkscape:cx="-5.0685463"
     inkscape:cy="171.60215"
     inkscape:document-units="mm"
     inkscape:current-layer="layer1"
     showgrid="false"
     units="px"
     inkscape:window-width="1319"
     inkscape:window-height="717"
     inkscape:window-x="335"
     inkscape:window-y="1107"
     inkscape:window-maximized="1" />
  <metadata
     id="metadata5">
    <rdf:RDF>
      <cc:Work
         rdf:about="">
        <dc:format>image/svg+xml</dc:format>
        <dc:type
           rdf:resource="http://purl.org/dc/dcmitype/StillImage" />
        <dc:title />
      </cc:Work>
    </rdf:RDF>
  </metadata>
  <g
     inkscape:label="Capa 1"
     inkscape:groupmode="layer"
     id="layer1"
     transform="translate(0,-230.85417)">
    <rect
       style="opacity:1;fill:#333333;fill-opacity:1;stroke:none;stroke-width:0.26580492;stroke-linecap:round;stroke-miterlimit:4;stroke-dasharray:none;stroke-opacity:1"
       id="rect2380"
       width="16.744436"
       height="29.747097"
       x="109.19058"
       y="251.67279"
       ry="1.6365848"
       clip-path="url(#clipPath1176)" />
    <rect
       style="opacity:1;fill:#0066ff;fill-opacity:1;stroke:none;stroke-width:0.24632542;stroke-linecap:round;stroke-miterlimit:4;stroke-dasharray:none;stroke-opacity:1"
       id="rect2380-1"
       width="16.744436"
       height="25.546837"
       x="109.19058"
       y="253.77292"
       ry="0"
       clip-path="url(#clipPath1166)" />
    <rect
       style="opacity:1;fill:#ffffff;fill-opacity:1;stroke:none;stroke-width:0.18550041;stroke-linecap:round;stroke-miterlimit:4;stroke-dasharray:none;stroke-opacity:1"
       id="rect2363"
       width="1.0204594"
       height="21.243917"
       x="110.52359"
       y="254.96561"
       ry="0.51022971"
       clip-path="url(#clipPath1156)" />
    <rect
       style="opacity:1;fill:#ffffff;fill-opacity:1;stroke:none;stroke-width:0.04216501;stroke-linecap:round;stroke-miterlimit:4;stroke-dasharray:none;stroke-opacity:1"
       id="rect2363-1"
       width="1.0583333"
       height="1.0583333"
       x="110.50465"
       y="276.88342"
       ry="0.52916664"
       clip-path="url(#clipPath1146)" />
    <rect
       style="opacity:1;fill:#0055d4;fill-opacity:1;stroke:none;stroke-width:0.13529435;stroke-linecap:round;stroke-miterlimit:4;stroke-dasharray:none;stroke-opacity:1"
       id="rect2380-1-9"
       width="5.0513945"
       height="25.546837"
       x="120.88362"
       y="253.77292"
       ry="0"
       clip-path="url(#clipPath1136)" />
    <circle
       style="opacity:1;fill:#0f0f0e;fill-opacity:1;stroke:none;stroke-width:1.89108694;stroke-linecap:round;stroke-miterlimit:4;stroke-dasharray:none;stroke-opacity:1"
       id="path1292"
       cx="33.072918"
       cy="267.88519"
       r="19.790567" />
    <circle
       style="opacity:1;fill:#0f0f0e;fill-opacity:1;stroke:none;stroke-width:1.89108694;stroke-linecap:round;stroke-miterlimit:4;stroke-dasharray:none;stroke-opacity:1;"
       id="path1292-8"
       cx="33.072918"
       cy="259.96899"
       r="19.790567" />
    <rect
       style="opacity:1;fill:#0f0f0e;fill-opacity:1;stroke:none;stroke-width:0.94155419;stroke-linecap:round;stroke-miterlimit:4;stroke-dasharray:none;stroke-opacity:1"
       id="rect1294"
       width="39.581135"
       height="7.9162264"
       x="13.28235"
       y="259.96893"
       ry="0" />
    <g
       transform="matrix(1.243546,0,0,1.243546,-9.5165649,-63.266168)"
       id="g1376-2"
       style="fill:#646464;fill-opacity:1">
      <circle
         r="13.229167"
         cy="265.75894"
         cx="34.248417"
         id="path1292-3"
         style="opacity:1;fill:#646464;fill-opacity:1;stroke:none;stroke-width:1.26411259;stroke-linecap:round;stroke-miterlimit:4;stroke-dasharray:none;stroke-opacity:1" />
      <circle
         r="13.229167"
         cy="260.46729"
         cx="34.248417"
         id="path1292-8-7"
         style="opacity:1;fill:#646464;fill-opacity:1;stroke:none;stroke-width:1.26411259;stroke-linecap:round;stroke-miterlimit:4;stroke-dasharray:none;stroke-opacity:1" />
      <rect
         ry="0"
         y="260.46725"
         x="21.019249"
         height="5.2916665"
         width="26.458334"
         id="rect1294-5"
         style="opacity:1;fill:#646464;fill-opacity:1;stroke:none;stroke-width:0.62938964;stroke-linecap:round;stroke-miterlimit:4;stroke-dasharray:none;stroke-opacity:1" />
    </g>
    <g
       id="g1371"
       transform="matrix(1.4959798,0,0,1.4959798,-16.271046,-129.7155)"
       style="fill:#0f0f0e;fill-opacity:1;">
      <circle
         r="2.6458333"
         cy="262.00272"
         cx="28.464069"
         id="path1352"
         style="opacity:1;fill:#0f0f0e;fill-opacity:1;stroke:none;stroke-width:0.47445163;stroke-linecap:round;stroke-miterlimit:4;stroke-dasharray:none;stroke-opacity:1" />
      <circle
         r="2.6458333"
         cy="262.00272"
         cx="37.504688"
         id="path1352-0"
         style="opacity:1;fill:#0f0f0e;fill-opacity:1;stroke:none;stroke-width:0.47445163;stroke-linecap:round;stroke-miterlimit:4;stroke-dasharray:none;stroke-opacity:1" />
    </g>
    <path
       style="opacity:1;fill:#0f0f0e;fill-opacity:1;stroke:none;stroke-width:2.0914824;stroke-linecap:round;stroke-miterlimit:4;stroke-dasharray:none;stroke-opacity:1;"
       d="m 30.01251,271.23492 c 2.040275,0.67495 4.080553,0.50735 6.120828,0 1.063993,-0.2646 1.979056,0.88266 1.979056,1.97905 0,1.0964 -0.944391,1.61636 -1.979056,1.97906 -2.040275,0.71521 -4.080553,0.55255 -6.120828,0 -1.058277,-0.2866 -1.979058,-0.88266 -1.979058,-1.97906 0,-1.09639 0.938139,-2.3234 1.979058,-1.97905 z"
       id="rect1402"
       inkscape:connector-curvature="0"
       sodipodi:nodetypes="sssssss" />
  </g>
</svg>
