<?xml version="1.0" encoding="UTF-8" standalone="no"?>
<!-- Created with Inkscape (http://www.inkscape.org/) -->

<svg
   xmlns:dc="http://purl.org/dc/elements/1.1/"
   xmlns:cc="http://creativecommons.org/ns#"
   xmlns:rdf="http://www.w3.org/1999/02/22-rdf-syntax-ns#"
   xmlns:svg="http://www.w3.org/2000/svg"
   xmlns="http://www.w3.org/2000/svg"
   xmlns:sodipodi="http://sodipodi.sourceforge.net/DTD/sodipodi-0.dtd"
   xmlns:inkscape="http://www.inkscape.org/namespaces/inkscape"
   width="300"
   height="450"
   viewBox="0 0 79.374999 119.06251"
   version="1.1"
   id="svg8"
   inkscape:version="0.92.3 (3ce5693, 2018-03-11)"
   sodipodi:docname="scanner-bg.svg">
  <defs
     id="defs2" />
  <sodipodi:namedview
     id="base"
     pagecolor="#ffffff"
     bordercolor="#666666"
     borderopacity="1.0"
     inkscape:pageopacity="0.0"
     inkscape:pageshadow="2"
     inkscape:zoom="0.98994949"
     inkscape:cx="161.2107"
     inkscape:cy="237.09875"
     inkscape:document-units="mm"
     inkscape:current-layer="layer1"
     showgrid="false"
     units="px"
     inkscape:window-width="1319"
     inkscape:window-height="717"
     inkscape:window-x="47"
     inkscape:window-y="27"
     inkscape:window-maximized="1" />
  <metadata
     id="metadata5">
    <rdf:RDF>
      <cc:Work
         rdf:about="">
        <dc:format>image/svg+xml</dc:format>
        <dc:type
           rdf:resource="http://purl.org/dc/dcmitype/StillImage" />
        <dc:title></dc:title>
      </cc:Work>
    </rdf:RDF>
  </metadata>
  <g
     inkscape:label="Capa 1"
     inkscape:groupmode="layer"
     id="layer1"
     transform="translate(0,-177.93749)">
    <path
       style="opacity:1;fill:#000000;fill-opacity:0.6627451;stroke:none;stroke-width:4.49645329;stroke-linecap:round;stroke-miterlimit:4;stroke-dasharray:none;stroke-opacity:1"
       d="M 0 0 L 0 450 L 300 450 L 300 0 L 0 0 z M 47.857422 122.85742 L 252.14258 122.85742 L 252.14258 327.14258 L 47.857422 327.14258 L 47.857422 122.85742 z "
       transform="matrix(0.26458333,0,0,0.26458333,0,177.93749)"
       id="rect818-3" />
    <g
       id="g847"
       transform="translate(152.94017,37.77663)">
      <path
         inkscape:connector-curvature="0"
         id="path860"
         d="m -140.27789,178.45899 v -5.7921 h 5.7921 5.79211 l -0.41736,0.4176 -0.41736,0.41761 h -4.95714 -4.95714 v 4.95714 4.95714 l -0.4176,0.41736 -0.41761,0.41736 z"
         style="opacity:1;fill:#ffffff;fill-opacity:0.99618321;stroke:none;stroke-width:0.0534539;stroke-linecap:round;stroke-miterlimit:4;stroke-dasharray:none;stroke-opacity:1" />
      <path
         inkscape:connector-curvature="0"
         id="path860-6"
         d="m -86.227447,178.45899 v -5.7921 h -5.792106 -5.792107 l 0.417358,0.4176 0.417358,0.41761 h 4.95714 4.95714 v 4.95714 4.95714 l 0.417608,0.41736 0.417609,0.41736 z"
         style="opacity:1;fill:#ffffff;fill-opacity:0.99618321;stroke:none;stroke-width:0.0534539;stroke-linecap:round;stroke-miterlimit:4;stroke-dasharray:none;stroke-opacity:1" />
      <path
         inkscape:connector-curvature="0"
         id="path860-6-7"
         d="m -92.019547,226.71733 h 5.7921 v -5.7921 -5.79211 l -0.4176,0.41736 -0.41761,0.41735 v 4.95714 4.95714 h -4.95714 -4.95714 l -0.41736,0.41761 -0.41736,0.41761 z"
         style="opacity:1;fill:#ffffff;fill-opacity:0.99618321;stroke:none;stroke-width:0.0534539;stroke-linecap:round;stroke-miterlimit:4;stroke-dasharray:none;stroke-opacity:1" />
      <path
         inkscape:connector-curvature="0"
         id="path860-6-7-5"
         d="m -134.48579,226.71733 h -5.7921 v -5.7921 -5.79211 l 0.4176,0.41736 0.41761,0.41735 v 4.95714 4.95714 h 4.95714 4.95714 l 0.41736,0.41761 0.41736,0.41761 z"
         style="opacity:1;fill:#ffffff;fill-opacity:0.99618321;stroke:none;stroke-width:0.0534539;stroke-linecap:round;stroke-miterlimit:4;stroke-dasharray:none;stroke-opacity:1" />
    </g>
  </g>
</svg>
