<?xml version="1.0" encoding="UTF-8" standalone="no"?>
<!-- Created with Inkscape (http://www.inkscape.org/) -->

<svg
   xmlns:dc="http://purl.org/dc/elements/1.1/"
   xmlns:cc="http://creativecommons.org/ns#"
   xmlns:rdf="http://www.w3.org/1999/02/22-rdf-syntax-ns#"
   xmlns:svg="http://www.w3.org/2000/svg"
   xmlns="http://www.w3.org/2000/svg"
   xmlns:sodipodi="http://sodipodi.sourceforge.net/DTD/sodipodi-0.dtd"
   xmlns:inkscape="http://www.inkscape.org/namespaces/inkscape"
   width="250"
   height="250"
   viewBox="0 0 66.145833 66.145833"
   version="1.1"
   id="svg8"
   inkscape:version="0.92.3 (3ce5693, 2018-03-11)"
   sodipodi:docname="train-icon-active.svg"
   inkscape:export-filename="/home/raeghar/Proyectos/gymgo/src/assets/imgs/train-icon-active.png"
   inkscape:export-xdpi="94.824493"
   inkscape:export-ydpi="94.824493">
  <defs
     id="defs2">
    <clipPath
       clipPathUnits="userSpaceOnUse"
       id="clipPath1136">
      <g
         id="g1144">
        <rect
           transform="rotate(-45.655781)"
           y="185.27229"
           x="-226.81439"
           height="16.410889"
           width="115.58973"
           id="rect1138"
           style="opacity:1;fill:#fcbb31;fill-opacity:1;stroke:none;stroke-width:0.89189607;stroke-linecap:round;stroke-miterlimit:4;stroke-dasharray:none;stroke-opacity:1" />
        <rect
           transform="rotate(-45.655781)"
           y="205.97289"
           x="-210.50682"
           height="11.065492"
           width="85.724998"
           id="rect1140"
           style="opacity:1;fill:#fcbb31;fill-opacity:1;stroke:none;stroke-width:0.63070703;stroke-linecap:round;stroke-miterlimit:4;stroke-dasharray:none;stroke-opacity:1" />
        <rect
           transform="rotate(-45.655781)"
           y="224.04019"
           x="-212.65302"
           height="25.641218"
           width="85.724998"
           id="rect1142"
           style="opacity:1;fill:#fcbb31;fill-opacity:1;stroke:none;stroke-width:0.96008933;stroke-linecap:round;stroke-miterlimit:4;stroke-dasharray:none;stroke-opacity:1" />
      </g>
    </clipPath>
    <clipPath
       clipPathUnits="userSpaceOnUse"
       id="clipPath1146">
      <g
         id="g1154">
        <rect
           transform="rotate(-45.655781)"
           y="185.27229"
           x="-226.81439"
           height="16.410889"
           width="115.58973"
           id="rect1148"
           style="opacity:1;fill:#fcbb31;fill-opacity:1;stroke:none;stroke-width:0.89189607;stroke-linecap:round;stroke-miterlimit:4;stroke-dasharray:none;stroke-opacity:1" />
        <rect
           transform="rotate(-45.655781)"
           y="205.97289"
           x="-210.50682"
           height="11.065492"
           width="85.724998"
           id="rect1150"
           style="opacity:1;fill:#fcbb31;fill-opacity:1;stroke:none;stroke-width:0.63070703;stroke-linecap:round;stroke-miterlimit:4;stroke-dasharray:none;stroke-opacity:1" />
        <rect
           transform="rotate(-45.655781)"
           y="224.04019"
           x="-212.65302"
           height="25.641218"
           width="85.724998"
           id="rect1152"
           style="opacity:1;fill:#fcbb31;fill-opacity:1;stroke:none;stroke-width:0.96008933;stroke-linecap:round;stroke-miterlimit:4;stroke-dasharray:none;stroke-opacity:1" />
      </g>
    </clipPath>
    <clipPath
       clipPathUnits="userSpaceOnUse"
       id="clipPath1156">
      <g
         id="g1164">
        <rect
           transform="rotate(-45.655781)"
           y="185.27229"
           x="-226.81439"
           height="16.410889"
           width="115.58973"
           id="rect1158"
           style="opacity:1;fill:#fcbb31;fill-opacity:1;stroke:none;stroke-width:0.89189607;stroke-linecap:round;stroke-miterlimit:4;stroke-dasharray:none;stroke-opacity:1" />
        <rect
           transform="rotate(-45.655781)"
           y="205.97289"
           x="-210.50682"
           height="11.065492"
           width="85.724998"
           id="rect1160"
           style="opacity:1;fill:#fcbb31;fill-opacity:1;stroke:none;stroke-width:0.63070703;stroke-linecap:round;stroke-miterlimit:4;stroke-dasharray:none;stroke-opacity:1" />
        <rect
           transform="rotate(-45.655781)"
           y="224.04019"
           x="-212.65302"
           height="25.641218"
           width="85.724998"
           id="rect1162"
           style="opacity:1;fill:#fcbb31;fill-opacity:1;stroke:none;stroke-width:0.96008933;stroke-linecap:round;stroke-miterlimit:4;stroke-dasharray:none;stroke-opacity:1" />
      </g>
    </clipPath>
    <clipPath
       clipPathUnits="userSpaceOnUse"
       id="clipPath1166">
      <g
         id="g1174">
        <rect
           transform="rotate(-45.655781)"
           y="185.27229"
           x="-226.81439"
           height="16.410889"
           width="115.58973"
           id="rect1168"
           style="opacity:1;fill:#fcbb31;fill-opacity:1;stroke:none;stroke-width:0.89189607;stroke-linecap:round;stroke-miterlimit:4;stroke-dasharray:none;stroke-opacity:1" />
        <rect
           transform="rotate(-45.655781)"
           y="205.97289"
           x="-210.50682"
           height="11.065492"
           width="85.724998"
           id="rect1170"
           style="opacity:1;fill:#fcbb31;fill-opacity:1;stroke:none;stroke-width:0.63070703;stroke-linecap:round;stroke-miterlimit:4;stroke-dasharray:none;stroke-opacity:1" />
        <rect
           transform="rotate(-45.655781)"
           y="224.04019"
           x="-212.65302"
           height="25.641218"
           width="85.724998"
           id="rect1172"
           style="opacity:1;fill:#fcbb31;fill-opacity:1;stroke:none;stroke-width:0.96008933;stroke-linecap:round;stroke-miterlimit:4;stroke-dasharray:none;stroke-opacity:1" />
      </g>
    </clipPath>
    <clipPath
       clipPathUnits="userSpaceOnUse"
       id="clipPath1176">
      <g
         id="g1184">
        <rect
           transform="rotate(-45.655781)"
           y="185.27229"
           x="-226.81439"
           height="16.410889"
           width="115.58973"
           id="rect1178"
           style="opacity:1;fill:#fcbb31;fill-opacity:1;stroke:none;stroke-width:0.89189607;stroke-linecap:round;stroke-miterlimit:4;stroke-dasharray:none;stroke-opacity:1" />
        <rect
           transform="rotate(-45.655781)"
           y="205.97289"
           x="-210.50682"
           height="11.065492"
           width="85.724998"
           id="rect1180"
           style="opacity:1;fill:#fcbb31;fill-opacity:1;stroke:none;stroke-width:0.63070703;stroke-linecap:round;stroke-miterlimit:4;stroke-dasharray:none;stroke-opacity:1" />
        <rect
           transform="rotate(-45.655781)"
           y="224.04019"
           x="-212.65302"
           height="25.641218"
           width="85.724998"
           id="rect1182"
           style="opacity:1;fill:#fcbb31;fill-opacity:1;stroke:none;stroke-width:0.96008933;stroke-linecap:round;stroke-miterlimit:4;stroke-dasharray:none;stroke-opacity:1" />
      </g>
    </clipPath>
    <clipPath
       clipPathUnits="userSpaceOnUse"
       id="clipPath1186">
      <g
         id="g1194">
        <rect
           transform="rotate(-45.655781)"
           y="185.27229"
           x="-226.81439"
           height="16.410889"
           width="115.58973"
           id="rect1188"
           style="opacity:1;fill:#fcbb31;fill-opacity:1;stroke:none;stroke-width:0.89189607;stroke-linecap:round;stroke-miterlimit:4;stroke-dasharray:none;stroke-opacity:1" />
        <rect
           transform="rotate(-45.655781)"
           y="205.97289"
           x="-210.50682"
           height="11.065492"
           width="85.724998"
           id="rect1190"
           style="opacity:1;fill:#fcbb31;fill-opacity:1;stroke:none;stroke-width:0.63070703;stroke-linecap:round;stroke-miterlimit:4;stroke-dasharray:none;stroke-opacity:1" />
        <rect
           transform="rotate(-45.655781)"
           y="224.04019"
           x="-212.65302"
           height="25.641218"
           width="85.724998"
           id="rect1192"
           style="opacity:1;fill:#fcbb31;fill-opacity:1;stroke:none;stroke-width:0.96008933;stroke-linecap:round;stroke-miterlimit:4;stroke-dasharray:none;stroke-opacity:1" />
      </g>
    </clipPath>
    <clipPath
       clipPathUnits="userSpaceOnUse"
       id="clipPath953">
      <rect
         style="opacity:1;fill:#a8a8a7;fill-opacity:1;stroke:none;stroke-width:0.59514278;stroke-linecap:round;stroke-miterlimit:4;stroke-dasharray:none;stroke-opacity:1"
         id="rect955"
         width="32.411457"
         height="80.822304"
         x="49.720467"
         y="225.53214" />
    </clipPath>
    <clipPath
       clipPathUnits="userSpaceOnUse"
       id="clipPath1006">
      <rect
         style="opacity:1;fill:#1e1b1c;fill-opacity:1;stroke:none;stroke-width:0.50971907;stroke-linecap:round;stroke-miterlimit:4;stroke-dasharray:none;stroke-opacity:1"
         id="rect1008"
         width="12.567708"
         height="26.789038"
         x="21.298952"
         y="250.63179" />
    </clipPath>
    <clipPath
       clipPathUnits="userSpaceOnUse"
       id="clipPath1006-6">
      <rect
         style="opacity:1;fill:#1e1b1c;fill-opacity:1;stroke:none;stroke-width:0.50971907;stroke-linecap:round;stroke-miterlimit:4;stroke-dasharray:none;stroke-opacity:1"
         id="rect1008-0"
         width="12.567708"
         height="26.789038"
         x="21.298952"
         y="250.63179" />
    </clipPath>
    <clipPath
       id="clipPath953-3"
       clipPathUnits="userSpaceOnUse">
      <rect
         y="225.53214"
         x="49.720467"
         height="80.822304"
         width="32.411457"
         id="rect955-6"
         style="opacity:1;fill:#a8a8a7;fill-opacity:1;stroke:none;stroke-width:0.59514278;stroke-linecap:round;stroke-miterlimit:4;stroke-dasharray:none;stroke-opacity:1" />
    </clipPath>
    <clipPath
       id="clipPath1186-7"
       clipPathUnits="userSpaceOnUse">
      <g
         id="g1194-5">
        <rect
           style="opacity:1;fill:#fcbb31;fill-opacity:1;stroke:none;stroke-width:0.89189607;stroke-linecap:round;stroke-miterlimit:4;stroke-dasharray:none;stroke-opacity:1"
           id="rect1188-3"
           width="115.58973"
           height="16.410889"
           x="-226.81439"
           y="185.27229"
           transform="rotate(-45.655781)" />
        <rect
           style="opacity:1;fill:#fcbb31;fill-opacity:1;stroke:none;stroke-width:0.63070703;stroke-linecap:round;stroke-miterlimit:4;stroke-dasharray:none;stroke-opacity:1"
           id="rect1190-5"
           width="85.724998"
           height="11.065492"
           x="-210.50682"
           y="205.97289"
           transform="rotate(-45.655781)" />
        <rect
           style="opacity:1;fill:#fcbb31;fill-opacity:1;stroke:none;stroke-width:0.96008933;stroke-linecap:round;stroke-miterlimit:4;stroke-dasharray:none;stroke-opacity:1"
           id="rect1192-6"
           width="85.724998"
           height="25.641218"
           x="-212.65302"
           y="224.04019"
           transform="rotate(-45.655781)" />
      </g>
    </clipPath>
  </defs>
  <sodipodi:namedview
     id="base"
     pagecolor="#ffffff"
     bordercolor="#666666"
     borderopacity="1.0"
     inkscape:pageopacity="0.0"
     inkscape:pageshadow="2"
     inkscape:zoom="1"
     inkscape:cx="-119.82005"
     inkscape:cy="126.87421"
     inkscape:document-units="mm"
     inkscape:current-layer="layer1"
     showgrid="false"
     units="px"
     inkscape:window-width="1319"
     inkscape:window-height="717"
     inkscape:window-x="335"
     inkscape:window-y="1107"
     inkscape:window-maximized="1" />
  <metadata
     id="metadata5">
    <rdf:RDF>
      <cc:Work
         rdf:about="">
        <dc:format>image/svg+xml</dc:format>
        <dc:type
           rdf:resource="http://purl.org/dc/dcmitype/StillImage" />
        <dc:title />
      </cc:Work>
    </rdf:RDF>
  </metadata>
  <g
     inkscape:label="Capa 1"
     inkscape:groupmode="layer"
     id="layer1"
     transform="translate(0,-230.85417)">
    <g
       id="g897"
       transform="translate(17.4625,-23.812498)">
      <circle
         r="25.676266"
         cy="287.73959"
         cx="15.610417"
         id="path2054-56"
         style="opacity:1;fill:#919191;fill-opacity:1;stroke:none;stroke-width:0.1621059;stroke-linecap:round;stroke-miterlimit:4;stroke-dasharray:none;stroke-opacity:1" />
      <circle
         transform="matrix(0.78757478,0.08545383,-0.08545383,0.78757478,12.116603,77.05106)"
         clip-path="url(#clipPath1186-7)"
         r="32.411457"
         cy="263.92709"
         cx="33.072918"
         id="path2054"
         style="opacity:1;fill:#aaaaaa;fill-opacity:1;stroke:none;stroke-width:0.20462821;stroke-linecap:round;stroke-miterlimit:4;stroke-dasharray:none;stroke-opacity:1" />
      <path
         inkscape:connector-curvature="0"
         id="path2054-56-2"
         d="m 15.610416,255.32813 a 32.411458,32.411458 0 0 0 -32.411456,32.41145 32.411458,32.411458 0 0 0 32.411456,32.41146 32.411458,32.411458 0 0 0 32.411458,-32.41146 32.411458,32.411458 0 0 0 -32.411458,-32.41145 z m 0,7.85792 A 24.553731,24.553731 0 0 1 40.163953,287.73958 24.553731,24.553731 0 0 1 15.610416,312.29312 24.553731,24.553731 0 0 1 -8.9431206,287.73958 24.553731,24.553731 0 0 1 15.610416,263.18605 Z"
         style="opacity:1;fill:#919191;fill-opacity:1;stroke:none;stroke-width:0.20462821;stroke-linecap:round;stroke-miterlimit:4;stroke-dasharray:none;stroke-opacity:1" />
      <path
         inkscape:connector-curvature="0"
         transform="translate(-66.521508,26.09934)"
         clip-path="url(#clipPath953-3)"
         id="path2054-56-2-9"
         d="M 82.131923,229.22879 A 32.411458,32.411458 0 0 0 49.720467,261.64024 32.411458,32.411458 0 0 0 82.131923,294.0517 32.411458,32.411458 0 0 0 114.54338,261.64024 32.411458,32.411458 0 0 0 82.131923,229.22879 Z m 0,7.85792 a 24.553731,24.553731 0 0 1 24.553537,24.55353 24.553731,24.553731 0 0 1 -24.553537,24.55354 24.553731,24.553731 0 0 1 -24.553537,-24.55354 24.553731,24.553731 0 0 1 24.553537,-24.55353 z"
         style="opacity:1;fill:#aaaaaa;fill-opacity:1;stroke:none;stroke-width:0.20462821;stroke-linecap:round;stroke-miterlimit:4;stroke-dasharray:none;stroke-opacity:1" />
    </g>
    <rect
       style="opacity:1;fill:#333333;fill-opacity:1;stroke:none;stroke-width:0.26580492;stroke-linecap:round;stroke-miterlimit:4;stroke-dasharray:none;stroke-opacity:1"
       id="rect2380"
       width="16.744436"
       height="29.747097"
       x="109.19058"
       y="251.67279"
       ry="1.6365848"
       clip-path="url(#clipPath1176)" />
    <rect
       style="opacity:1;fill:#0066ff;fill-opacity:1;stroke:none;stroke-width:0.24632542;stroke-linecap:round;stroke-miterlimit:4;stroke-dasharray:none;stroke-opacity:1"
       id="rect2380-1"
       width="16.744436"
       height="25.546837"
       x="109.19058"
       y="253.77292"
       ry="0"
       clip-path="url(#clipPath1166)" />
    <rect
       style="opacity:1;fill:#ffffff;fill-opacity:1;stroke:none;stroke-width:0.18550041;stroke-linecap:round;stroke-miterlimit:4;stroke-dasharray:none;stroke-opacity:1"
       id="rect2363"
       width="1.0204594"
       height="21.243917"
       x="110.52359"
       y="254.96561"
       ry="0.51022971"
       clip-path="url(#clipPath1156)" />
    <rect
       style="opacity:1;fill:#ffffff;fill-opacity:1;stroke:none;stroke-width:0.04216501;stroke-linecap:round;stroke-miterlimit:4;stroke-dasharray:none;stroke-opacity:1"
       id="rect2363-1"
       width="1.0583333"
       height="1.0583333"
       x="110.50465"
       y="276.88342"
       ry="0.52916664"
       clip-path="url(#clipPath1146)" />
    <rect
       style="opacity:1;fill:#0055d4;fill-opacity:1;stroke:none;stroke-width:0.13529435;stroke-linecap:round;stroke-miterlimit:4;stroke-dasharray:none;stroke-opacity:1"
       id="rect2380-1-9"
       width="5.0513945"
       height="25.546837"
       x="120.88362"
       y="253.77292"
       ry="0"
       clip-path="url(#clipPath1136)" />
    <rect
       style="opacity:1;fill:#201f1f;fill-opacity:1;stroke:none;stroke-width:0.58204234;stroke-linecap:round;stroke-miterlimit:4;stroke-dasharray:none;stroke-opacity:1"
       id="rect953-3-9-6"
       width="9.7414808"
       height="23.136017"
       x="127.32098"
       y="210.61177"
       ry="4.8707404"
       transform="matrix(-0.7596871,0.65028879,0.65028879,0.7596871,0,0)" />
    <rect
       style="opacity:1;fill:#201f1f;fill-opacity:1;stroke:none;stroke-width:0.65415913;stroke-linecap:round;stroke-miterlimit:4;stroke-dasharray:none;stroke-opacity:1"
       id="rect953-3-9-3-0"
       width="9.7414808"
       height="29.224443"
       x="134.27713"
       y="207.56752"
       ry="4.8707404"
       transform="matrix(-0.7596871,0.65028879,0.65028879,0.7596871,0,0)" />
    <rect
       style="opacity:1;fill:#323232;fill-opacity:1;stroke:none;stroke-width:0.42225796;stroke-linecap:round;stroke-miterlimit:4;stroke-dasharray:none;stroke-opacity:1"
       id="rect953-6"
       width="4.8707404"
       height="24.353703"
       x="-141.58327"
       y="210.0029"
       ry="2.4353702"
       transform="rotate(-40.563379)" />
    <rect
       style="opacity:1;fill:#323232;fill-opacity:1;stroke:none;stroke-width:0.36568606;stroke-linecap:round;stroke-miterlimit:4;stroke-dasharray:none;stroke-opacity:1"
       id="rect953-3-2"
       width="4.8707404"
       height="18.26528"
       x="129.75635"
       y="213.04713"
       ry="2.4353702"
       transform="matrix(-0.7596871,0.65028879,0.65028879,0.7596871,0,0)" />
    <rect
       style="opacity:1;fill:#201f1f;fill-opacity:1;stroke:none;stroke-width:0.58204234;stroke-linecap:round;stroke-miterlimit:4;stroke-dasharray:none;stroke-opacity:1"
       id="rect953-3-9"
       width="9.7414808"
       height="23.136017"
       x="-165.68652"
       y="210.27013"
       ry="4.8707404"
       transform="rotate(-40.563379)" />
    <rect
       style="opacity:1;fill:#201f1f;fill-opacity:1;stroke:none;stroke-width:0.65415913;stroke-linecap:round;stroke-miterlimit:4;stroke-dasharray:none;stroke-opacity:1"
       id="rect953-3-9-3"
       width="9.7414808"
       height="29.224443"
       x="-158.73038"
       y="207.31201"
       ry="4.8707404"
       transform="rotate(-40.563379)" />
    <rect
       style="opacity:1;fill:#323232;fill-opacity:1;stroke:none;stroke-width:0.42225796;stroke-linecap:round;stroke-miterlimit:4;stroke-dasharray:none;stroke-opacity:1"
       id="rect953"
       width="4.8707404"
       height="24.353703"
       x="151.42424"
       y="209.74738"
       ry="2.4353702"
       transform="matrix(-0.7596871,0.65028879,0.65028879,0.7596871,0,0)" />
    <rect
       style="opacity:1;fill:#323232;fill-opacity:1;stroke:none;stroke-width:0.36568606;stroke-linecap:round;stroke-miterlimit:4;stroke-dasharray:none;stroke-opacity:1"
       id="rect953-3"
       width="4.8707404"
       height="18.26528"
       x="-163.25116"
       y="212.70549"
       ry="2.4353702"
       transform="rotate(-40.563379)" />
    <rect
       style="opacity:1;fill:#201f1f;fill-opacity:1;stroke:none;stroke-width:0.32707962;stroke-linecap:round;stroke-miterlimit:4;stroke-dasharray:none;stroke-opacity:1"
       id="rect953-0-6"
       width="7.3061109"
       height="9.7414808"
       x="143.66867"
       y="216.63477"
       ry="0"
       transform="matrix(-0.7596871,0.65028879,0.65028879,0.7596871,0,0)" />
    <rect
       style="opacity:1;fill:#646464;fill-opacity:1;stroke:none;stroke-width:0.20374763;stroke-linecap:round;stroke-miterlimit:4;stroke-dasharray:none;stroke-opacity:1"
       id="rect953-0"
       width="5.6701474"
       height="4.8707404"
       x="143.66867"
       y="219.07014"
       ry="0"
       transform="matrix(-0.7596871,0.65028879,0.65028879,0.7596871,0,0)" />
  </g>
</svg>
