<?xml version="1.0" encoding="UTF-8" standalone="no"?>
<!-- Created with Inkscape (http://www.inkscape.org/) -->

<svg
   xmlns:dc="http://purl.org/dc/elements/1.1/"
   xmlns:cc="http://creativecommons.org/ns#"
   xmlns:rdf="http://www.w3.org/1999/02/22-rdf-syntax-ns#"
   xmlns:svg="http://www.w3.org/2000/svg"
   xmlns="http://www.w3.org/2000/svg"
   xmlns:sodipodi="http://sodipodi.sourceforge.net/DTD/sodipodi-0.dtd"
   xmlns:inkscape="http://www.inkscape.org/namespaces/inkscape"
   width="250"
   height="250"
   viewBox="0 0 66.145833 66.145833"
   version="1.1"
   id="svg8"
   inkscape:version="0.92.3 (3ce5693, 2018-03-11)"
   sodipodi:docname="b2.svg">
  <defs
     id="defs2">
    <clipPath
       clipPathUnits="userSpaceOnUse"
       id="clipPath1136">
      <g
         id="g1144">
        <rect
           transform="rotate(-45.655781)"
           y="185.27229"
           x="-226.81439"
           height="16.410889"
           width="115.58973"
           id="rect1138"
           style="opacity:1;fill:#fcbb31;fill-opacity:1;stroke:none;stroke-width:0.89189607;stroke-linecap:round;stroke-miterlimit:4;stroke-dasharray:none;stroke-opacity:1" />
        <rect
           transform="rotate(-45.655781)"
           y="205.97289"
           x="-210.50682"
           height="11.065492"
           width="85.724998"
           id="rect1140"
           style="opacity:1;fill:#fcbb31;fill-opacity:1;stroke:none;stroke-width:0.63070703;stroke-linecap:round;stroke-miterlimit:4;stroke-dasharray:none;stroke-opacity:1" />
        <rect
           transform="rotate(-45.655781)"
           y="224.04019"
           x="-212.65302"
           height="25.641218"
           width="85.724998"
           id="rect1142"
           style="opacity:1;fill:#fcbb31;fill-opacity:1;stroke:none;stroke-width:0.96008933;stroke-linecap:round;stroke-miterlimit:4;stroke-dasharray:none;stroke-opacity:1" />
      </g>
    </clipPath>
    <clipPath
       clipPathUnits="userSpaceOnUse"
       id="clipPath1146">
      <g
         id="g1154">
        <rect
           transform="rotate(-45.655781)"
           y="185.27229"
           x="-226.81439"
           height="16.410889"
           width="115.58973"
           id="rect1148"
           style="opacity:1;fill:#fcbb31;fill-opacity:1;stroke:none;stroke-width:0.89189607;stroke-linecap:round;stroke-miterlimit:4;stroke-dasharray:none;stroke-opacity:1" />
        <rect
           transform="rotate(-45.655781)"
           y="205.97289"
           x="-210.50682"
           height="11.065492"
           width="85.724998"
           id="rect1150"
           style="opacity:1;fill:#fcbb31;fill-opacity:1;stroke:none;stroke-width:0.63070703;stroke-linecap:round;stroke-miterlimit:4;stroke-dasharray:none;stroke-opacity:1" />
        <rect
           transform="rotate(-45.655781)"
           y="224.04019"
           x="-212.65302"
           height="25.641218"
           width="85.724998"
           id="rect1152"
           style="opacity:1;fill:#fcbb31;fill-opacity:1;stroke:none;stroke-width:0.96008933;stroke-linecap:round;stroke-miterlimit:4;stroke-dasharray:none;stroke-opacity:1" />
      </g>
    </clipPath>
    <clipPath
       clipPathUnits="userSpaceOnUse"
       id="clipPath1156">
      <g
         id="g1164">
        <rect
           transform="rotate(-45.655781)"
           y="185.27229"
           x="-226.81439"
           height="16.410889"
           width="115.58973"
           id="rect1158"
           style="opacity:1;fill:#fcbb31;fill-opacity:1;stroke:none;stroke-width:0.89189607;stroke-linecap:round;stroke-miterlimit:4;stroke-dasharray:none;stroke-opacity:1" />
        <rect
           transform="rotate(-45.655781)"
           y="205.97289"
           x="-210.50682"
           height="11.065492"
           width="85.724998"
           id="rect1160"
           style="opacity:1;fill:#fcbb31;fill-opacity:1;stroke:none;stroke-width:0.63070703;stroke-linecap:round;stroke-miterlimit:4;stroke-dasharray:none;stroke-opacity:1" />
        <rect
           transform="rotate(-45.655781)"
           y="224.04019"
           x="-212.65302"
           height="25.641218"
           width="85.724998"
           id="rect1162"
           style="opacity:1;fill:#fcbb31;fill-opacity:1;stroke:none;stroke-width:0.96008933;stroke-linecap:round;stroke-miterlimit:4;stroke-dasharray:none;stroke-opacity:1" />
      </g>
    </clipPath>
    <clipPath
       clipPathUnits="userSpaceOnUse"
       id="clipPath1166">
      <g
         id="g1174">
        <rect
           transform="rotate(-45.655781)"
           y="185.27229"
           x="-226.81439"
           height="16.410889"
           width="115.58973"
           id="rect1168"
           style="opacity:1;fill:#fcbb31;fill-opacity:1;stroke:none;stroke-width:0.89189607;stroke-linecap:round;stroke-miterlimit:4;stroke-dasharray:none;stroke-opacity:1" />
        <rect
           transform="rotate(-45.655781)"
           y="205.97289"
           x="-210.50682"
           height="11.065492"
           width="85.724998"
           id="rect1170"
           style="opacity:1;fill:#fcbb31;fill-opacity:1;stroke:none;stroke-width:0.63070703;stroke-linecap:round;stroke-miterlimit:4;stroke-dasharray:none;stroke-opacity:1" />
        <rect
           transform="rotate(-45.655781)"
           y="224.04019"
           x="-212.65302"
           height="25.641218"
           width="85.724998"
           id="rect1172"
           style="opacity:1;fill:#fcbb31;fill-opacity:1;stroke:none;stroke-width:0.96008933;stroke-linecap:round;stroke-miterlimit:4;stroke-dasharray:none;stroke-opacity:1" />
      </g>
    </clipPath>
    <clipPath
       clipPathUnits="userSpaceOnUse"
       id="clipPath1176">
      <g
         id="g1184">
        <rect
           transform="rotate(-45.655781)"
           y="185.27229"
           x="-226.81439"
           height="16.410889"
           width="115.58973"
           id="rect1178"
           style="opacity:1;fill:#fcbb31;fill-opacity:1;stroke:none;stroke-width:0.89189607;stroke-linecap:round;stroke-miterlimit:4;stroke-dasharray:none;stroke-opacity:1" />
        <rect
           transform="rotate(-45.655781)"
           y="205.97289"
           x="-210.50682"
           height="11.065492"
           width="85.724998"
           id="rect1180"
           style="opacity:1;fill:#fcbb31;fill-opacity:1;stroke:none;stroke-width:0.63070703;stroke-linecap:round;stroke-miterlimit:4;stroke-dasharray:none;stroke-opacity:1" />
        <rect
           transform="rotate(-45.655781)"
           y="224.04019"
           x="-212.65302"
           height="25.641218"
           width="85.724998"
           id="rect1182"
           style="opacity:1;fill:#fcbb31;fill-opacity:1;stroke:none;stroke-width:0.96008933;stroke-linecap:round;stroke-miterlimit:4;stroke-dasharray:none;stroke-opacity:1" />
      </g>
    </clipPath>
    <clipPath
       clipPathUnits="userSpaceOnUse"
       id="clipPath1186">
      <g
         id="g1194">
        <rect
           transform="rotate(-45.655781)"
           y="185.27229"
           x="-226.81439"
           height="16.410889"
           width="115.58973"
           id="rect1188"
           style="opacity:1;fill:#fcbb31;fill-opacity:1;stroke:none;stroke-width:0.89189607;stroke-linecap:round;stroke-miterlimit:4;stroke-dasharray:none;stroke-opacity:1" />
        <rect
           transform="rotate(-45.655781)"
           y="205.97289"
           x="-210.50682"
           height="11.065492"
           width="85.724998"
           id="rect1190"
           style="opacity:1;fill:#fcbb31;fill-opacity:1;stroke:none;stroke-width:0.63070703;stroke-linecap:round;stroke-miterlimit:4;stroke-dasharray:none;stroke-opacity:1" />
        <rect
           transform="rotate(-45.655781)"
           y="224.04019"
           x="-212.65302"
           height="25.641218"
           width="85.724998"
           id="rect1192"
           style="opacity:1;fill:#fcbb31;fill-opacity:1;stroke:none;stroke-width:0.96008933;stroke-linecap:round;stroke-miterlimit:4;stroke-dasharray:none;stroke-opacity:1" />
      </g>
    </clipPath>
  </defs>
  <sodipodi:namedview
     id="base"
     pagecolor="#ffffff"
     bordercolor="#666666"
     borderopacity="1.0"
     inkscape:pageopacity="0.0"
     inkscape:pageshadow="2"
     inkscape:zoom="0.70710678"
     inkscape:cx="-23.664774"
     inkscape:cy="142.35565"
     inkscape:document-units="mm"
     inkscape:current-layer="layer1"
     showgrid="false"
     units="px"
     inkscape:window-width="1319"
     inkscape:window-height="717"
     inkscape:window-x="47"
     inkscape:window-y="27"
     inkscape:window-maximized="1" />
  <metadata
     id="metadata5">
    <rdf:RDF>
      <cc:Work
         rdf:about="">
        <dc:format>image/svg+xml</dc:format>
        <dc:type
           rdf:resource="http://purl.org/dc/dcmitype/StillImage" />
        <dc:title></dc:title>
      </cc:Work>
    </rdf:RDF>
  </metadata>
  <g
     inkscape:label="Capa 1"
     inkscape:groupmode="layer"
     id="layer1"
     transform="translate(0,-230.85417)">
    <circle
       style="opacity:1;fill:#fcbb31;fill-opacity:1;stroke:none;stroke-width:0.20462821;stroke-linecap:round;stroke-miterlimit:4;stroke-dasharray:none;stroke-opacity:1"
       id="path2054-56"
       cx="33.072918"
       cy="263.92709"
       r="32.411457" />
    <circle
       style="opacity:1;fill:#faa931;fill-opacity:1;stroke:none;stroke-width:0.20462821;stroke-linecap:round;stroke-miterlimit:4;stroke-dasharray:none;stroke-opacity:1"
       id="path2054"
       cx="33.072918"
       cy="263.92709"
       r="32.411457"
       clip-path="url(#clipPath1186)" />
    <circle
       style="opacity:1;fill:#d43e31;fill-opacity:1;stroke:none;stroke-width:0.165373;stroke-linecap:round;stroke-miterlimit:4;stroke-dasharray:none;stroke-opacity:1"
       id="path2054-5"
       cx="33.072918"
       cy="263.92709"
       r="26.193748" />
    <rect
       style="opacity:1;fill:#333333;fill-opacity:1;stroke:none;stroke-width:0.26580492;stroke-linecap:round;stroke-miterlimit:4;stroke-dasharray:none;stroke-opacity:1"
       id="rect2380"
       width="16.744436"
       height="29.747097"
       x="109.19058"
       y="251.67279"
       ry="1.6365848"
       clip-path="url(#clipPath1176)" />
    <rect
       style="opacity:1;fill:#0066ff;fill-opacity:1;stroke:none;stroke-width:0.24632542;stroke-linecap:round;stroke-miterlimit:4;stroke-dasharray:none;stroke-opacity:1"
       id="rect2380-1"
       width="16.744436"
       height="25.546837"
       x="109.19058"
       y="253.77292"
       ry="0"
       clip-path="url(#clipPath1166)" />
    <rect
       style="opacity:1;fill:#ffffff;fill-opacity:1;stroke:none;stroke-width:0.18550041;stroke-linecap:round;stroke-miterlimit:4;stroke-dasharray:none;stroke-opacity:1"
       id="rect2363"
       width="1.0204594"
       height="21.243917"
       x="110.52359"
       y="254.96561"
       ry="0.51022971"
       clip-path="url(#clipPath1156)" />
    <rect
       style="opacity:1;fill:#ffffff;fill-opacity:1;stroke:none;stroke-width:0.04216501;stroke-linecap:round;stroke-miterlimit:4;stroke-dasharray:none;stroke-opacity:1"
       id="rect2363-1"
       width="1.0583333"
       height="1.0583333"
       x="110.50465"
       y="276.88342"
       ry="0.52916664"
       clip-path="url(#clipPath1146)" />
    <rect
       style="opacity:1;fill:#0055d4;fill-opacity:1;stroke:none;stroke-width:0.13529435;stroke-linecap:round;stroke-miterlimit:4;stroke-dasharray:none;stroke-opacity:1"
       id="rect2380-1-9"
       width="5.0513945"
       height="25.546837"
       x="120.88362"
       y="253.77292"
       ry="0"
       clip-path="url(#clipPath1136)" />
  </g>
</svg>
