<?xml version="1.0" encoding="UTF-8" standalone="no"?>
<!-- Created with Inkscape (http://www.inkscape.org/) -->

<svg
   xmlns:dc="http://purl.org/dc/elements/1.1/"
   xmlns:cc="http://creativecommons.org/ns#"
   xmlns:rdf="http://www.w3.org/1999/02/22-rdf-syntax-ns#"
   xmlns:svg="http://www.w3.org/2000/svg"
   xmlns="http://www.w3.org/2000/svg"
   xmlns:sodipodi="http://sodipodi.sourceforge.net/DTD/sodipodi-0.dtd"
   xmlns:inkscape="http://www.inkscape.org/namespaces/inkscape"
   version="1.1"
   id="svg131"
   width="250"
   height="250"
   viewBox="0 0 250 250"
   sodipodi:docname="balanza.svg"
   inkscape:version="0.92.3 (3ce5693, 2018-03-11)"
   inkscape:export-filename="/home/raeghar/Proyectos/gymgo/src/assets/imgs/balanza.png"
   inkscape:export-xdpi="96"
   inkscape:export-ydpi="96">
  <metadata
     id="metadata137">
    <rdf:RDF>
      <cc:Work
         rdf:about="">
        <dc:format>image/svg+xml</dc:format>
        <dc:type
           rdf:resource="http://purl.org/dc/dcmitype/StillImage" />
        <dc:title></dc:title>
      </cc:Work>
    </rdf:RDF>
  </metadata>
  <defs
     id="defs135" />
  <sodipodi:namedview
     pagecolor="#ffffff"
     bordercolor="#666666"
     borderopacity="1"
     objecttolerance="10"
     gridtolerance="10"
     guidetolerance="10"
     inkscape:pageopacity="0"
     inkscape:pageshadow="2"
     inkscape:window-width="1319"
     inkscape:window-height="717"
     id="namedview133"
     showgrid="false"
     showguides="false"
     inkscape:zoom="1"
     inkscape:cx="-26.546052"
     inkscape:cy="72.405644"
     inkscape:window-x="47"
     inkscape:window-y="27"
     inkscape:window-maximized="1"
     inkscape:current-layer="svg131" />
  <circle
     style="fill:#e6e6e6;fill-opacity:1;stroke:none;stroke-width:1.11177218;stroke-linecap:round;stroke-miterlimit:4;stroke-dasharray:none;stroke-opacity:1"
     id="path952-3"
     cx="125"
     cy="125"
     inkscape:export-xdpi="93.895325"
     inkscape:export-ydpi="93.895325"
     r="122.5" />
  <circle
     style="fill:#ffd700;fill-opacity:1;stroke:none;stroke-width:0.99832606;stroke-linecap:round;stroke-miterlimit:4;stroke-dasharray:none;stroke-opacity:1"
     id="path952"
     cx="125"
     cy="125"
     r="110" />
  <path
     transform="matrix(0.70668533,-0.70752798,0.7106911,0.7035042,0,0)"
     style="fill:#ff5500;fill-opacity:0.41379311;stroke:none;stroke-width:1.2361958;stroke-linecap:round;stroke-miterlimit:4;stroke-dasharray:none;stroke-opacity:1"
     d="m -85.472548,179.15646 169.269704,-0.78153 -4.350298,73.65839 c -49.136963,48.86001 -117.885141,43.3548 -158.64071,2.36612 0,0 -4.608365,-59.44866 -6.278696,-75.24298 z"
     id="rect819-5"
     inkscape:connector-curvature="0"
     sodipodi:nodetypes="ccccc" />
  <rect
     style="fill:#440055;fill-opacity:1;stroke:none;stroke-width:1.16735029;stroke-linecap:round;stroke-miterlimit:4;stroke-dasharray:none;stroke-opacity:1"
     id="rect819"
     width="129"
     height="129"
     x="60.5"
     y="60.5"
     ry="15.63549" />
  <rect
     style="fill:#008bff;fill-opacity:1;stroke:none;stroke-width:1.31646454;stroke-linecap:round;stroke-miterlimit:4;stroke-dasharray:none;stroke-opacity:1"
     id="rect860"
     width="101.78963"
     height="29.434074"
     x="74.105186"
     y="74.70153"
     ry="6.089817" />
  <path
     style="fill:#1a1a1a;fill-opacity:1;stroke:none;stroke-width:0.03125;stroke-linecap:round;stroke-miterlimit:4;stroke-dasharray:none;stroke-opacity:1"
     d="m 120.26016,103.76355 c 0.0561,-1.13623 0.53021,-2.17626 1.37888,-3.02494 0.84013,-0.840123 1.83604,-1.299551 3.00643,-1.386903 2.6472,-0.197573 4.93918,1.808753 5.09353,4.458723 l 0.0205,0.35156 H 125 120.2405 Z"
     id="path908"
     inkscape:connector-curvature="0" />
  <path
     style="fill:#1a1a1a;fill-opacity:1;stroke:none;stroke-width:1.50995147;stroke-linecap:round;stroke-miterlimit:4;stroke-dasharray:none;stroke-opacity:1"
     d="m 122.40355,100.5435 2.6219,-12.268565 2.57099,12.511505 -2.78525,1.4799 z"
     id="rect910"
     inkscape:connector-curvature="0"
     sodipodi:nodetypes="ccccc" />
  <rect
     style="fill:#741886;fill-opacity:1;stroke:none;stroke-width:1;stroke-linecap:round;stroke-miterlimit:4;stroke-dasharray:none;stroke-opacity:1"
     id="rect843-6"
     width="38.151112"
     height="54.814816"
     x="138.18591"
     y="117.8619"
     ry="9.1513176" />
  <path
     style="fill:#000000;fill-opacity:0.42745098;stroke:none;stroke-width:0.23582679;stroke-linecap:round;stroke-miterlimit:4;stroke-dasharray:none;stroke-opacity:1"
     d="M 125.07199,124.98977 V 60.517818 h 24.52173 c 16.26172,0 25.1385,0.0857 26.35279,0.254413 7.06221,0.981238 12.37206,6.40488 13.32029,13.605731 0.15671,1.190079 0.21482,19.044238 0.16889,51.901188 -0.0662,47.3227 -0.0933,50.16509 -0.49225,51.50126 -0.83226,2.78747 -2.03623,4.82489 -4.05291,6.85854 -2.05945,2.07678 -3.91918,3.24119 -6.61182,4.13977 l -1.65165,0.55117 -25.77752,0.0659 -25.77755,0.0659 z"
     id="path884"
     inkscape:connector-curvature="0" />
  <rect
     style="fill:#000000;fill-opacity:0.42857145;stroke:none;stroke-width:1;stroke-linecap:round;stroke-miterlimit:4;stroke-dasharray:none;stroke-opacity:1"
     id="rect843"
     width="38.151112"
     height="54.814816"
     x="74.162689"
     y="117.8619"
     ry="9.8584242" />
</svg>
